%YAML 1.1
%TAG !u! tag:unity3d.com,2011:
--- !u!114 &11400000
MonoBehaviour:
  m_ObjectHideFlags: 0
  m_CorrespondingSourceObject: {fileID: 0}
  m_PrefabInstance: {fileID: 0}
  m_PrefabAsset: {fileID: 0}
  m_GameObject: {fileID: 0}
  m_Enabled: 1
  m_EditorHideFlags: 0
  m_Script: {fileID: 11500000, guid: 51ed8d9165c4af04899334ddf6f932a6, type: 3}
  m_Name: Qiqi
  m_EditorClassIdentifier: 
  Name: "\u0426\u0438\u0446\u0438"
  Money: 10
  Hp: 0
  Def: 0
  At: 0
  Reg: 0
  Kr: 0
  Kchance: 0
  Stam: 0
  Speed: 0
  Satiety: 0
  Happy: 0
  Profession: 1
